# Blender MTL File: 'house.blend'
# Material Count: 1

newmtl Material__46
Ns 225.000000
Ka 1.000000 1.000000 1.000000
Kd 0.800000 0.800000 0.800000
Ks 0.500000 0.500000 0.500000
Ke 0.000000 0.000000 0.000000
Ni 1.450000
d 1.000000
illum 2
map_Ka Prop_trashcan_ao.jpg
map_Kd Prop_trashCan_diffuse.jpg
